SurveysTutorial • final.pkg
…
## ── Attaching core tidyverse packages ──────────────────────── tidyverse 2.0.0 ──
## ✔ dplyr     1.1.4     ✔ readr     2.1.4
## ✔ forcats   1.0.0     ✔ stringr   1.5.1
## ✔ ggplot2   3.4.4     ✔ tibble    3.2.1
## ✔ lubridate 1.9.3     ✔ tidyr     1.3.0
## ✔ purrr     1.0.2

## ── Conflicts ────────────────────────────────────────── tidyverse_conflicts() ──
## ✖ dplyr::filter() masks stats::filter()
## ✖ dplyr::lag()    masks stats::lag()
## ℹ Use the conflicted package (<http://conflicted.r-lib.org/>) to force all conflicts to become errors

remove_nas_p3(surveys, "weight")

## # A tibble: 40 × 1
##    weight
##     <dbl>
##  1     40
##  2     48
##  3     29
##  4     46
##  5     36
##  6     52
##  7      8
##  8     22
##  9     35
## 10      7
## # ℹ 30 more rows
…
After you have done this, type the function title into your console
followed by the data set of your choosing and a column from the data
set. An example is shown below.

multiply_variable(surveys, hindfoot_length)

## # A tibble: 40 × 10
##    record_id month   day  year plot_id species_id sex   hindfoot_length weight
##        <dbl> <dbl> <dbl> <dbl>   <dbl> <chr>      <chr>           <dbl>  <dbl>
##  1        63     8    19  1977       3 DM         M                  35     40
##  2        64     8    19  1977       7 DM         M                  37     48
##  3        65     8    19  1977       4 DM         F                  34     29
##  4        66     8    19  1977       4 DM         F                  35     46
##  5        67     8    19  1977       7 DM         M                  35     36
##  6        68     8    19  1977       8 DO         F                  32     52
##  7        69     8    19  1977       2 PF         M                  15      8
##  8        70     8    19  1977       3 OX         F                  21     22
##  9        71     8    19  1977       7 DM         F                  36     35
## 10        74     8    19  1977       8 PF         M                  12      7
## # ℹ 30 more rows
## # ℹ 1 more variable: new_column <dbl>
…
After you have done this, type the function title into your console
followed by the data set of your choosing and a column from the data
set. An example is shown below.

bar_graph(surveys, independent = weight)

## # A tibble: 151 × 9
##    record_id month   day  year plot_id species_id sex   hindfoot_length weight
##        <dbl> <dbl> <dbl> <dbl>   <dbl> <chr>      <chr>           <dbl>  <dbl>
##  1         1     7    16  1977       2 NL         M                  32     NA
##  2         2     7    16  1977       3 NL         M                  33     NA
##  3         3     7    16  1977       2 DM         F                  37     NA
##  4         4     7    16  1977       7 DM         M                  36     NA
##  5         5     7    16  1977       3 DM         M                  35     NA
##  6         6     7    16  1977       1 PF         M                  14     NA
##  7         7     7    16  1977       2 PE         F                  NA     NA
##  8         8     7    16  1977       1 DM         M                  37     NA
##  9         9     7    16  1977       1 DM         F                  34     NA
## 10        10     7    16  1977       6 PF         F                  20     NA
## # ℹ 141 more rows
…
After you have done this, type the function title into your console
followed by the data set of your choosing and two columns from the data
set. Make sure to define which variable is independent and which
variable is dependent. An example is shown below.

point_graph(surveys, independent = weight, dependent = hindfoot_length)

## # A tibble: 151 × 9
##    record_id month   day  year plot_id species_id sex   hindfoot_length weight
##        <dbl> <dbl> <dbl> <dbl>   <dbl> <chr>      <chr>           <dbl>  <dbl>
##  1         1     7    16  1977       2 NL         M                  32     NA
##  2         2     7    16  1977       3 NL         M                  33     NA
##  3         3     7    16  1977       2 DM         F                  37     NA
##  4         4     7    16  1977       7 DM         M                  36     NA
##  5         5     7    16  1977       3 DM         M                  35     NA
##  6         6     7    16  1977       1 PF         M                  14     NA
##  7         7     7    16  1977       2 PE         F                  NA     NA
##  8         8     7    16  1977       1 DM         M                  37     NA
##  9         9     7    16  1977       1 DM         F                  34     NA
## 10        10     7    16  1977       6 PF         F                  20     NA
## # ℹ 141 more rows
…
